<!-- Generated by IcoMoon.io -->
<svg version="1.1" xmlns="http://www.w3.org/2000/svg" width="32" height="32" viewBox="0 0 32 32">
<title>bars</title>
<path d="M4.75 15c0.756 0 1.441-0.303 1.947-0.791l2.775 1.387c-0.014 0.113-0.034 0.224-0.034 0.341 0 1.551 1.262 2.812 2.813 2.812s2.813-1.262 2.813-2.813c0-0.433-0.106-0.838-0.282-1.205l3.765-3.765c0.367 0.175 0.772 0.282 1.205 0.282 1.551 0 2.813-1.262 2.813-2.813 0-0.292-0.057-0.568-0.14-0.833l3.271-2.453c0.446 0.298 0.981 0.473 1.557 0.473 1.551 0 2.813-1.262 2.813-2.813s-1.262-2.813-2.813-2.813-2.813 1.262-2.813 2.813c0 0.292 0.057 0.568 0.14 0.833l-3.271 2.453c-0.446-0.298-0.981-0.473-1.557-0.473-1.551 0-2.813 1.262-2.813 2.813 0 0.433 0.106 0.838 0.282 1.205l-3.765 3.765c-0.367-0.175-0.772-0.282-1.205-0.282-0.756 0-1.441 0.303-1.947 0.791l-2.775-1.387c0.014-0.113 0.034-0.224 0.034-0.341 0-1.551-1.262-2.813-2.813-2.813s-2.813 1.262-2.813 2.813 1.262 2.813 2.812 2.813zM31.063 30.125h-1v-19.813c0-0.518-0.419-0.938-0.938-0.938h-3.75c-0.518 0-0.938 0.419-0.938 0.938v19.813h-1.875v-14.188c0-0.518-0.419-0.938-0.938-0.938h-3.75c-0.518 0-0.938 0.419-0.938 0.938v14.188h-1.875v-6.688c0-0.518-0.419-0.938-0.938-0.938h-3.75c-0.518 0-0.938 0.419-0.938 0.938v6.688h-1.875v-10.438c0-0.518-0.419-0.938-0.938-0.938h-3.75c-0.518 0-0.938 0.419-0.938 0.938v10.438h-1c-0.518 0-0.938 0.419-0.938 0.938s0.419 0.938 0.938 0.938h30.125c0.518 0 0.938-0.419 0.938-0.938s-0.419-0.938-0.938-0.938z"></path>
</svg>
