<!-- Generated by IcoMoon.io -->
<svg version="1.1" xmlns="http://www.w3.org/2000/svg" width="32" height="32" viewBox="0 0 32 32">
<title>right-arrow</title>
<path d="M31.804 15.557l-11.666-11.666c-0.141-0.186-0.369-0.285-0.601-0.26-0.366 0.038-0.632 0.367-0.593 0.733v5.944h-11.111c-0.368 0-0.667 0.299-0.667 0.667v10.111c0 0.368 0.298 0.667 0.667 0.667h11.111v5.986c-0.003 0.274 0.162 0.522 0.417 0.625 0.083 0.015 0.167 0.015 0.25 0 0.196 0.016 0.389-0.055 0.528-0.194l11.666-11.666c0.001-0.001 0.001-0.001 0.002-0.002 0.26-0.261 0.259-0.683-0.002-0.943zM3.569 10.307h1.333v11.444h-1.333v-11.444zM0 10.307h1.333v11.444h-1.333v-11.444z"></path>
</svg>
